{
  "images" : [
    {
      "idiom" : "universal",
      "filename" : "bernard_hermant_kq_o_lr_8_oi_qlu_unsplash.png",
      "scale" : "1x"
    },
    {
      "idiom" : "universal",
      "filename" : "bernard_hermant_kq_o_lr_8_oi_qlu_unsplash-1.png",
      "scale" : "2x"
    },
    {
      "idiom" : "universal",
      "filename" : "bernard_hermant_kq_o_lr_8_oi_qlu_unsplash-2.png",
      "scale" : "3x"
    }
  ],
  "info" : {
    "version" : 1,
    "author" : "xcode"
  }
}